{
  "question": "Can you identify all customers focused on investments in our database? I need to see their IDs, investment amounts and total assets.",
  "ambiguity_check": {
    "is_ambiguous": true,
    "reason": "„Focused on investments“ ist kein direktes Feld im Schema, sondern nur als Domain-Regel „Investment Focused“ definiert. Um eine korrekte SQL-Abfrage zu bauen, muss explizit bestätigt werden, ob genau diese Regel (inkl. JSONB-Kriterien und Schwellenwert investamt > 0.3 × totassets) verwendet werden soll oder ob eine andere/vereinfachte Definition gemeint ist. Außerdem ist „customer IDs“ unklar, ob damit core_record.clientref oder der Datensatzschlüssel (coreregistry/expemplref/bankexpref) gemeint ist.",
    "questions": [
      "Soll „focused on investments“ exakt nach der Domain-Regel „Investment Focused“ bestimmt werden (invcluster.investport ∈ {Moderate, Aggressive}, invcluster.investexp = Extensive, und investamt > 0.3 × totassets)?",
      "Welche ID soll ausgegeben werden: core_record.clientref (Kunden-ID) oder der Record-Key coreregistry/expemplref (der durch die Tabellenkette läuft)?"
    ]
  },
  "generated_sql": "SELECT\n  cr.clientref AS customer_id,\n  ea.investamt AS investment_amount,\n  ea.totassets AS total_assets\nFROM core_record cr\nJOIN employment_and_income ei ON cr.coreregistry = ei.emplcoreref\nJOIN expenses_and_assets ea ON ei.emplcoreref = ea.expemplref\nJOIN bank_and_transactions bt ON ea.expemplref = bt.bankexpref\nWHERE\n  json_extract(bt.chaninvdatablock, '$.invcluster.investport') IN ('Moderate', 'Aggressive')\n  AND json_extract(bt.chaninvdatablock, '$.invcluster.investexp') = 'Extensive'\n  AND ea.investamt > (0.3 * ea.totassets)",
  "validation": {
    "is_valid": true,
    "errors": [],
    "severity": "low",
    "suggestions": [
      "Optional: Add NULL-safety for JSON fields, e.g. `json_extract(bt.chaninvdatablock,'$.invcluster.investport') IS NOT NULL` to avoid unexpected NULL comparisons.",
      "Optional: Guard against NULL `ea.totassets` (and division-by-zero style issues) by adding `ea.totassets IS NOT NULL AND ea.totassets > 0` if that’s a business requirement.",
      "Optional: If `chaninvdatablock` can contain invalid JSON, consider `json_valid(bt.chaninvdatablock)=1` before `json_extract` to prevent runtime errors in SQLite builds where invalid JSON raises errors."
    ]
  },
  "results": [
    {
      "customer_id": "CU510437",
      "investment_amount": 795900.0,
      "total_assets": 194996.0
    },
    {
      "customer_id": "CU590052",
      "investment_amount": 708061.0,
      "total_assets": 934678.0
    },
    {
      "customer_id": "CU876471",
      "investment_amount": 462864.0,
      "total_assets": 1073011.0
    },
    {
      "customer_id": "CU906564",
      "investment_amount": 589529.0,
      "total_assets": 1887143.0
    },
    {
      "customer_id": "CU205099",
      "investment_amount": 291820.0,
      "total_assets": 586082.0
    },
    {
      "customer_id": "CU805853",
      "investment_amount": 783620.0,
      "total_assets": 4474.0
    },
    {
      "customer_id": "CU979203",
      "investment_amount": 302362.0,
      "total_assets": 304027.0
    },
    {
      "customer_id": "CU933465",
      "investment_amount": 148415.0,
      "total_assets": 335865.0
    },
    {
      "customer_id": "CU152246",
      "investment_amount": 884380.0,
      "total_assets": 122019.0
    },
    {
      "customer_id": "CU485747",
      "investment_amount": 360202.0,
      "total_assets": 955663.0
    },
    {
      "customer_id": "CU367158",
      "investment_amount": 285443.0,
      "total_assets": 888087.0
    },
    {
      "customer_id": "CU772323",
      "investment_amount": 602116.0,
      "total_assets": 445419.0
    },
    {
      "customer_id": "CU510937",
      "investment_amount": 648606.0,
      "total_assets": 808018.0
    },
    {
      "customer_id": "CU221557",
      "investment_amount": 661040.0,
      "total_assets": 1433499.0
    },
    {
      "customer_id": "CU536200",
      "investment_amount": 305263.0,
      "total_assets": 777763.0
    },
    {
      "customer_id": "CU857784",
      "investment_amount": 905742.0,
      "total_assets": 1935526.0
    },
    {
      "customer_id": "CU299135",
      "investment_amount": 686760.0,
      "total_assets": 430677.0
    },
    {
      "customer_id": "CU850967",
      "investment_amount": 631427.0,
      "total_assets": 1910484.0
    },
    {
      "customer_id": "CU586098",
      "investment_amount": 737733.0,
      "total_assets": 1413670.0
    },
    {
      "customer_id": "CU795375",
      "investment_amount": 703597.0,
      "total_assets": 353346.0
    },
    {
      "customer_id": "CU145752",
      "investment_amount": 405358.0,
      "total_assets": 309841.0
    },
    {
      "customer_id": "CU566777",
      "investment_amount": 639693.0,
      "total_assets": 482323.0
    },
    {
      "customer_id": "CU660850",
      "investment_amount": 716230.0,
      "total_assets": 1161485.0
    },
    {
      "customer_id": "CU467816",
      "investment_amount": 959322.0,
      "total_assets": 70796.0
    },
    {
      "customer_id": "CU474384",
      "investment_amount": 710281.0,
      "total_assets": 774932.0
    },
    {
      "customer_id": "CU576359",
      "investment_amount": 815014.0,
      "total_assets": 1261144.0
    },
    {
      "customer_id": "CU179700",
      "investment_amount": 122953.0,
      "total_assets": 31283.0
    },
    {
      "customer_id": "CU566504",
      "investment_amount": 49289.0,
      "total_assets": 76121.0
    },
    {
      "customer_id": "CU854993",
      "investment_amount": 659300.0,
      "total_assets": 1007432.0
    },
    {
      "customer_id": "CU523128",
      "investment_amount": 609511.0,
      "total_assets": 271847.0
    },
    {
      "customer_id": "CU895068",
      "investment_amount": 906923.0,
      "total_assets": 988022.0
    },
    {
      "customer_id": "CU352386",
      "investment_amount": 352761.0,
      "total_assets": 240369.0
    },
    {
      "customer_id": "CU629031",
      "investment_amount": 727240.0,
      "total_assets": 1121571.0
    },
    {
      "customer_id": "CU557882",
      "investment_amount": 438063.0,
      "total_assets": 688337.0
    },
    {
      "customer_id": "CU322817",
      "investment_amount": 215107.0,
      "total_assets": 503329.0
    },
    {
      "customer_id": "CU561367",
      "investment_amount": 858477.0,
      "total_assets": 788838.0
    },
    {
      "customer_id": "CU702212",
      "investment_amount": 518392.0,
      "total_assets": 860229.0
    },
    {
      "customer_id": "CU459906",
      "investment_amount": 893188.0,
      "total_assets": 957980.0
    },
    {
      "customer_id": "CU397888",
      "investment_amount": 776657.0,
      "total_assets": 1630529.0
    },
    {
      "customer_id": "CU807412",
      "investment_amount": 691519.0,
      "total_assets": 1179182.0
    },
    {
      "customer_id": "CU320296",
      "investment_amount": 531856.0,
      "total_assets": 1011677.0
    },
    {
      "customer_id": "CU157244",
      "investment_amount": 585866.0,
      "total_assets": 1603898.0
    },
    {
      "customer_id": "CU929125",
      "investment_amount": 368520.0,
      "total_assets": 1025269.0
    },
    {
      "customer_id": "CU158159",
      "investment_amount": 814909.0,
      "total_assets": 148363.0
    },
    {
      "customer_id": "CU176011",
      "investment_amount": 729524.0,
      "total_assets": 1415145.0
    },
    {
      "customer_id": "CU635750",
      "investment_amount": 286240.0,
      "total_assets": 744165.0
    },
    {
      "customer_id": "CU358701",
      "investment_amount": 599552.0,
      "total_assets": 1463068.0
    },
    {
      "customer_id": "CU625221",
      "investment_amount": 506229.0,
      "total_assets": 369310.0
    },
    {
      "customer_id": "CU183051",
      "investment_amount": 808298.0,
      "total_assets": 1492879.0
    },
    {
      "customer_id": "CU572655",
      "investment_amount": 346273.0,
      "total_assets": 1126459.0
    }
  ],
  "row_count": 50,
  "query_id": "1fee683b399440c792f339ffab1bcb13",
  "page": 1,
  "page_size": 50,
  "total_pages": 2,
  "total_rows": 95,
  "has_next_page": true,
  "has_previous_page": false,
  "notice": "Seite 1 von 2 (50 von 95 Zeilen). Weitere Seiten verfügbar.  Hinweis: Ambiguity: „Focused on investments“ ist kein direktes Feld im Schema, sondern nur als Domain-Regel „Investment Focused“ definiert. Um eine korrekte SQL-Abfrage zu bauen, muss explizit bestätigt werden, ob genau diese Regel (inkl. JSONB-Kriterien und Schwellenwert investamt > 0.3 × totassets) verwendet werden soll oder ob eine andere/vereinfachte Definition gemeint ist. Außerdem ist „customer IDs“ unklar, ob damit core_record.clientref oder der Datensatzschlüssel (coreregistry/expemplref/bankexpref) gemeint ist.. Klärungsfragen: Soll „focused on investments“ exakt nach der Domain-Regel „Investment Focused“ bestimmt werden (invcluster.investport ∈ {Moderate, Aggressive}, invcluster.investexp = Extensive, und investamt > 0.3 × totassets)?, Welche ID soll ausgegeben werden: core_record.clientref (Kunden-ID) oder der Record-Key coreregistry/expemplref (der durch die Tabellenkette läuft)?",
  "summary": "Die Abfrage identifiziert 95 Kunden (Seite 1 zeigt 50), die ein moderates oder aggressives Investmentprofil mit „Extensive“ Erfahrung haben und deren Investmentbetrag mehr als 30% der Gesamtvermögen ausmacht. In den ersten Ergebnissen fallen CU510437 (Investment 795.900 bei Total Assets 194.996), CU590052 (708.061 bei 934.678) und CU876471 (462.864 bei 1.073.011) auf; insbesondere CU510437 wirkt aufgrund des sehr hohen Investmentbetrags im Verhältnis zu den ausgewiesenen Gesamtvermögen auffällig und sollte ggf. auf Datenqualität oder Definitionen geprüft werden.",
  "explanation": "Returns all customers who meet the BSL 'Investment Focused' definition, outputting their CU-format customer_id plus investment amount and total assets. Uses the required join chain to access customer ID (core_record), assets/investments (expenses_and_assets), and investment cluster attributes stored in JSON (bank_and_transactions).",
  "error": null
}