{
  "question": "For each customer, show their ID, liquid and total assets, liquidity measure, monthly income, investment amount and label of their investment potential.",
  "ambiguity_check": {
    "is_ambiguous": true,
    "reason": "Wesentliche Punkte sind nicht eindeutig definiert: (1) „liquidity measure“ ist kein vorhandenes Feld und es gibt mehrere mögliche Kennzahlen im Domain-Wissen (z. B. ALR oder FSI-Komponenten). (2) „label of their investment potential“ ist nicht als eindeutige Regel/Definition im Domain-Wissen festgelegt (es gibt z. B. „Investment Services Target“, „Investment Focused“, IPQ), daher ist unklar, welche Logik/Schwellenwerte zur Label-Bildung genutzt werden sollen. Außerdem ist „customer ID“ mehrdeutig (clientref vs. coreregistry), und „monthly income“ könnte mthincome oder hshincome sein.",
    "questions": [
      "Welche Kennzahl meinst du mit „liquidity measure“ (z. B. Asset Liquidity Ratio (ALR), Financial Stability Index (FSI) oder etwas anderes)?",
      "Wie soll „investment potential“ gelabelt werden—nach welcher Definition/Regel (z. B. Investment Services Target, Investment Focused, IPQ mit Schwellenwerten) und welche Kategorien/Thresholds sollen verwendet werden?"
    ]
  },
  "generated_sql": "SELECT\n  cr.clientref AS customer_id,\n  ea.liqassets AS liquid_assets,\n  ea.totassets AS total_assets,\n  CASE\n    WHEN ea.totassets IS NULL OR ea.totassets = 0 THEN NULL\n    ELSE ea.liqassets * 1.0 / ea.totassets\n  END AS liquidity_measure,\n  ei.mthincome AS monthly_income,\n  ea.investamt AS investment_amount,\n  CASE\n    WHEN ea.totassets IS NULL OR ea.totassets = 0 OR ea.investamt IS NULL THEN 'Unknown'\n    WHEN ea.investamt >= 0.30 * ea.totassets THEN 'High'\n    WHEN ea.investamt >= 0.10 * ea.totassets THEN 'Medium'\n    ELSE 'Low'\n  END AS investment_potential_label\nFROM core_record cr\nJOIN employment_and_income ei\n  ON cr.coreregistry = ei.emplcoreref\nJOIN expenses_and_assets ea\n  ON ei.emplcoreref = ea.expemplref",
  "validation": {
    "is_valid": true,
    "errors": [],
    "severity": "low",
    "suggestions": [
      "Optional: If you want to keep rows even when employment/assets data is missing, use LEFT JOIN instead of JOIN.",
      "Optional: Consider guarding against ea.liqassets IS NULL in liquidity_measure if you want NULL instead of NULL/number behavior (currently NULL propagates naturally).",
      "Optional: If negative totassets are possible, the liquidity_measure and investment thresholds may become counterintuitive; consider adding a filter or handling for ea.totassets < 0."
    ]
  },
  "results": [
    {
      "customer_id": "CU338528",
      "liquid_assets": 94190.0,
      "total_assets": 1495371.0,
      "liquidity_measure": 0.062987713416938,
      "monthly_income": 6564.25,
      "investment_amount": 163007.0,
      "investment_potential_label": "Medium"
    },
    {
      "customer_id": "CU209954",
      "liquid_assets": 186120.0,
      "total_assets": 1923802.0,
      "liquidity_measure": 0.0967459229172233,
      "monthly_income": 33835.58,
      "investment_amount": 643448.0,
      "investment_potential_label": "High"
    },
    {
      "customer_id": "CU314145",
      "liquid_assets": 429061.0,
      "total_assets": 1259260.0,
      "liquidity_measure": 0.3407247113384051,
      "monthly_income": 18687.75,
      "investment_amount": 523492.0,
      "investment_potential_label": "High"
    },
    {
      "customer_id": "CU727930",
      "liquid_assets": 326737.0,
      "total_assets": 555132.0,
      "liquidity_measure": 0.5885753298314635,
      "monthly_income": 21272.83,
      "investment_amount": 363903.0,
      "investment_potential_label": "High"
    },
    {
      "customer_id": "CU794268",
      "liquid_assets": 226494.0,
      "total_assets": 846173.0,
      "liquidity_measure": 0.2676686682274192,
      "monthly_income": 29862.83,
      "investment_amount": 312806.0,
      "investment_potential_label": "High"
    },
    {
      "customer_id": "CU488662",
      "liquid_assets": 172739.0,
      "total_assets": 277451.0,
      "liquidity_measure": 0.6225928181913203,
      "monthly_income": 5401.75,
      "investment_amount": 285627.0,
      "investment_potential_label": "High"
    },
    {
      "customer_id": "CU390121",
      "liquid_assets": 284607.0,
      "total_assets": 1190666.0,
      "liquidity_measure": 0.23903176877478655,
      "monthly_income": 29779.67,
      "investment_amount": 377119.0,
      "investment_potential_label": "High"
    },
    {
      "customer_id": "CU259187",
      "liquid_assets": 50319.0,
      "total_assets": 1079715.0,
      "liquidity_measure": 0.04660396493519123,
      "monthly_income": 7582.5,
      "investment_amount": 698147.0,
      "investment_potential_label": "High"
    },
    {
      "customer_id": "CU596654",
      "liquid_assets": 262653.0,
      "total_assets": 1838678.0,
      "liquidity_measure": 0.14284882943071053,
      "monthly_income": 20711.92,
      "investment_amount": 108554.0,
      "investment_potential_label": "Low"
    },
    {
      "customer_id": "CU572395",
      "liquid_assets": 114233.0,
      "total_assets": 663194.0,
      "liquidity_measure": 0.17224673323341286,
      "monthly_income": 3105.67,
      "investment_amount": 706349.0,
      "investment_potential_label": "High"
    },
    {
      "customer_id": "CU646174",
      "liquid_assets": 200195.0,
      "total_assets": 631745.0,
      "liquidity_measure": 0.31689210045192284,
      "monthly_income": 28742.08,
      "investment_amount": 675468.0,
      "investment_potential_label": "High"
    },
    {
      "customer_id": "CU466756",
      "liquid_assets": 374806.0,
      "total_assets": 634974.0,
      "liquidity_measure": 0.5902698378201312,
      "monthly_income": 10998.33,
      "investment_amount": 383086.0,
      "investment_potential_label": "High"
    },
    {
      "customer_id": "CU478628",
      "liquid_assets": 4920.0,
      "total_assets": 449712.0,
      "liquidity_measure": 0.010940335147827943,
      "monthly_income": 30262.75,
      "investment_amount": 933147.0,
      "investment_potential_label": "High"
    },
    {
      "customer_id": "CU133084",
      "liquid_assets": 275510.0,
      "total_assets": 829580.0,
      "liquidity_measure": 0.33210781359242025,
      "monthly_income": 12955.58,
      "investment_amount": 303766.0,
      "investment_potential_label": "High"
    },
    {
      "customer_id": "CU993201",
      "liquid_assets": 225367.0,
      "total_assets": 382490.0,
      "liquidity_measure": 0.589210175429423,
      "monthly_income": 26878.67,
      "investment_amount": 845844.0,
      "investment_potential_label": "High"
    },
    {
      "customer_id": "CU572551",
      "liquid_assets": 250760.0,
      "total_assets": 1700935.0,
      "liquidity_measure": 0.14742479871364866,
      "monthly_income": 1925.33,
      "investment_amount": 510567.0,
      "investment_potential_label": "High"
    },
    {
      "customer_id": "CU450680",
      "liquid_assets": 277342.0,
      "total_assets": 1666761.0,
      "liquidity_measure": 0.16639578199873886,
      "monthly_income": 25511.67,
      "investment_amount": 531761.0,
      "investment_potential_label": "High"
    },
    {
      "customer_id": "CU496685",
      "liquid_assets": 329932.0,
      "total_assets": 1846280.0,
      "liquidity_measure": 0.17870095543471196,
      "monthly_income": 10928.33,
      "investment_amount": 995124.0,
      "investment_potential_label": "High"
    },
    {
      "customer_id": "CU990238",
      "liquid_assets": 478309.0,
      "total_assets": 801215.0,
      "liquidity_measure": 0.5969795872518613,
      "monthly_income": 5215.83,
      "investment_amount": 475692.0,
      "investment_potential_label": "High"
    },
    {
      "customer_id": "CU465765",
      "liquid_assets": 36203.0,
      "total_assets": 456257.0,
      "liquidity_measure": 0.07934782370462261,
      "monthly_income": 39672.75,
      "investment_amount": 883237.0,
      "investment_potential_label": "High"
    },
    {
      "customer_id": "CU950980",
      "liquid_assets": 390300.0,
      "total_assets": 264158.0,
      "liquidity_measure": 1.4775248146942361,
      "monthly_income": 8876.08,
      "investment_amount": 318945.0,
      "investment_potential_label": "High"
    },
    {
      "customer_id": "CU510437",
      "liquid_assets": 327959.0,
      "total_assets": 194996.0,
      "liquidity_measure": 1.6818755256518083,
      "monthly_income": 4478.17,
      "investment_amount": 795900.0,
      "investment_potential_label": "High"
    },
    {
      "customer_id": "CU226752",
      "liquid_assets": 68913.0,
      "total_assets": 909790.0,
      "liquidity_measure": 0.07574605128656063,
      "monthly_income": 34752.25,
      "investment_amount": 862559.0,
      "investment_potential_label": "High"
    },
    {
      "customer_id": "CU790495",
      "liquid_assets": 425133.0,
      "total_assets": 1099502.0,
      "liquidity_measure": 0.3866595967992782,
      "monthly_income": 36844.25,
      "investment_amount": 969288.0,
      "investment_potential_label": "High"
    },
    {
      "customer_id": "CU334526",
      "liquid_assets": 168868.0,
      "total_assets": 1888947.0,
      "liquidity_measure": 0.08939795558054302,
      "monthly_income": 15466.08,
      "investment_amount": 455900.0,
      "investment_potential_label": "Medium"
    },
    {
      "customer_id": "CU872801",
      "liquid_assets": 445414.0,
      "total_assets": 163762.0,
      "liquidity_measure": 2.7198861762802116,
      "monthly_income": 13932.58,
      "investment_amount": 921365.0,
      "investment_potential_label": "High"
    },
    {
      "customer_id": "CU706313",
      "liquid_assets": 63886.0,
      "total_assets": 1725531.0,
      "liquidity_measure": 0.03702396537645513,
      "monthly_income": 32269.42,
      "investment_amount": 22619.0,
      "investment_potential_label": "Low"
    },
    {
      "customer_id": "CU257943",
      "liquid_assets": 283634.0,
      "total_assets": 311818.0,
      "liquidity_measure": 0.9096139414658551,
      "monthly_income": 28957.83,
      "investment_amount": 483546.0,
      "investment_potential_label": "High"
    },
    {
      "customer_id": "CU590052",
      "liquid_assets": 475716.0,
      "total_assets": 934678.0,
      "liquidity_measure": 0.5089624448205692,
      "monthly_income": 9145.25,
      "investment_amount": 708061.0,
      "investment_potential_label": "High"
    },
    {
      "customer_id": "CU250617",
      "liquid_assets": 55503.0,
      "total_assets": 1033596.0,
      "liquidity_measure": 0.05369893072341611,
      "monthly_income": 38216.25,
      "investment_amount": 446462.0,
      "investment_potential_label": "High"
    },
    {
      "customer_id": "CU543548",
      "liquid_assets": 210790.0,
      "total_assets": 1415997.0,
      "liquidity_measure": 0.14886330973865058,
      "monthly_income": 2055.83,
      "investment_amount": 717735.0,
      "investment_potential_label": "High"
    },
    {
      "customer_id": "CU776107",
      "liquid_assets": 293278.0,
      "total_assets": 199067.0,
      "liquidity_measure": 1.4732627708259027,
      "monthly_income": 37966.92,
      "investment_amount": 153689.0,
      "investment_potential_label": "High"
    },
    {
      "customer_id": "CU628920",
      "liquid_assets": 411686.0,
      "total_assets": 76333.0,
      "liquidity_measure": 5.393289927030249,
      "monthly_income": 21405.25,
      "investment_amount": 808502.0,
      "investment_potential_label": "High"
    },
    {
      "customer_id": "CU459105",
      "liquid_assets": 211931.0,
      "total_assets": 1793740.0,
      "liquidity_measure": 0.11815034508903186,
      "monthly_income": 20519.33,
      "investment_amount": 981686.0,
      "investment_potential_label": "High"
    },
    {
      "customer_id": "CU245038",
      "liquid_assets": 92141.0,
      "total_assets": 46156.0,
      "liquidity_measure": 1.9962951728919318,
      "monthly_income": 7123.33,
      "investment_amount": 641089.0,
      "investment_potential_label": "High"
    },
    {
      "customer_id": "CU146539",
      "liquid_assets": 86658.0,
      "total_assets": 780656.0,
      "liquidity_measure": 0.11100664056895738,
      "monthly_income": 7871.0,
      "investment_amount": 842207.0,
      "investment_potential_label": "High"
    },
    {
      "customer_id": "CU396524",
      "liquid_assets": 296136.0,
      "total_assets": 1267240.0,
      "liquidity_measure": 0.23368580537230516,
      "monthly_income": 28803.83,
      "investment_amount": 248950.0,
      "investment_potential_label": "Medium"
    },
    {
      "customer_id": "CU406149",
      "liquid_assets": 217607.0,
      "total_assets": 1881207.0,
      "liquidity_measure": 0.11567413899693123,
      "monthly_income": 36181.75,
      "investment_amount": 398727.0,
      "investment_potential_label": "Medium"
    },
    {
      "customer_id": "CU287208",
      "liquid_assets": 77885.0,
      "total_assets": 377314.0,
      "liquidity_measure": 0.20641958686929188,
      "monthly_income": 7059.33,
      "investment_amount": 31706.0,
      "investment_potential_label": "Low"
    },
    {
      "customer_id": "CU695152",
      "liquid_assets": 406792.0,
      "total_assets": 360716.0,
      "liquidity_measure": 1.1277348384878962,
      "monthly_income": 41372.58,
      "investment_amount": 807574.0,
      "investment_potential_label": "High"
    },
    {
      "customer_id": "CU636798",
      "liquid_assets": 351033.0,
      "total_assets": 186906.0,
      "liquidity_measure": 1.8781259028602613,
      "monthly_income": 7808.92,
      "investment_amount": 172474.0,
      "investment_potential_label": "High"
    },
    {
      "customer_id": "CU472683",
      "liquid_assets": 11679.0,
      "total_assets": 1933746.0,
      "liquidity_measure": 0.006039572932536124,
      "monthly_income": 33384.83,
      "investment_amount": 832606.0,
      "investment_potential_label": "High"
    },
    {
      "customer_id": "CU689896",
      "liquid_assets": 72377.0,
      "total_assets": 1712168.0,
      "liquidity_measure": 0.042272136846384235,
      "monthly_income": 34519.42,
      "investment_amount": 43136.0,
      "investment_potential_label": "Low"
    },
    {
      "customer_id": "CU716365",
      "liquid_assets": 154259.0,
      "total_assets": 988926.0,
      "liquidity_measure": 0.1559863933196215,
      "monthly_income": 16168.67,
      "investment_amount": 610139.0,
      "investment_potential_label": "High"
    },
    {
      "customer_id": "CU239744",
      "liquid_assets": 57044.0,
      "total_assets": 131279.0,
      "liquidity_measure": 0.4345249430602,
      "monthly_income": 22163.67,
      "investment_amount": 879112.0,
      "investment_potential_label": "High"
    },
    {
      "customer_id": "CU899231",
      "liquid_assets": 171893.0,
      "total_assets": 1501606.0,
      "liquidity_measure": 0.11447277115301883,
      "monthly_income": 10665.33,
      "investment_amount": 416820.0,
      "investment_potential_label": "Medium"
    },
    {
      "customer_id": "CU911050",
      "liquid_assets": 491033.0,
      "total_assets": 48476.0,
      "liquidity_measure": 10.129404241274033,
      "monthly_income": 9055.75,
      "investment_amount": 462258.0,
      "investment_potential_label": "High"
    },
    {
      "customer_id": "CU257244",
      "liquid_assets": 97540.0,
      "total_assets": 1720214.0,
      "liquidity_measure": 0.056702247511065486,
      "monthly_income": 3771.08,
      "investment_amount": 947561.0,
      "investment_potential_label": "High"
    },
    {
      "customer_id": "CU139206",
      "liquid_assets": 195905.0,
      "total_assets": 1743869.0,
      "liquidity_measure": 0.11233928695332046,
      "monthly_income": 33668.0,
      "investment_amount": 853860.0,
      "investment_potential_label": "High"
    },
    {
      "customer_id": "CU121543",
      "liquid_assets": 130170.0,
      "total_assets": 1187727.0,
      "liquidity_measure": 0.10959589198527944,
      "monthly_income": 2624.5,
      "investment_amount": 823995.0,
      "investment_potential_label": "High"
    }
  ],
  "row_count": 50,
  "query_id": "33f5ba7df4f34c9481fb7bb75119c559",
  "page": 1,
  "page_size": 50,
  "total_pages": 20,
  "total_rows": 1000,
  "has_next_page": true,
  "has_previous_page": false,
  "notice": "Seite 1 von 20 (50 von 1000 Zeilen). Weitere Seiten verfügbar.  Hinweis: Ambiguity: Wesentliche Punkte sind nicht eindeutig definiert: (1) „liquidity measure“ ist kein vorhandenes Feld und es gibt mehrere mögliche Kennzahlen im Domain-Wissen (z. B. ALR oder FSI-Komponenten). (2) „label of their investment potential“ ist nicht als eindeutige Regel/Definition im Domain-Wissen festgelegt (es gibt z. B. „Investment Services Target“, „Investment Focused“, IPQ), daher ist unklar, welche Logik/Schwellenwerte zur Label-Bildung genutzt werden sollen. Außerdem ist „customer ID“ mehrdeutig (clientref vs. coreregistry), und „monthly income“ könnte mthincome oder hshincome sein.. Klärungsfragen: Welche Kennzahl meinst du mit „liquidity measure“ (z. B. Asset Liquidity Ratio (ALR), Financial Stability Index (FSI) oder etwas anderes)?, Wie soll „investment potential“ gelabelt werden—nach welcher Definition/Regel (z. B. Investment Services Target, Investment Focused, IPQ mit Schwellenwerten) und welche Kategorien/Thresholds sollen verwendet werden?",
  "summary": "Die Abfrage liefert pro Kunde (insgesamt 1000 Zeilen, hier Seite 1 mit 50) die Kennzahlen zu liquiden und gesamten Vermögenswerten, eine Liquiditätsquote (liquid_assets/total_assets), das monatliche Einkommen, den Investmentbetrag sowie ein daraus abgeleitetes Investment-Potenzial (Low/Medium/High; bei fehlenden/0 total_assets oder fehlendem investamt „Unknown“). In den ersten Zeilen zeigt sich z. B. CU338528 mit 94.190 liquiden Mitteln bei 1.495.371 Gesamtvermögen (Liquiditätsquote ~0,063) und 163.007 Investmentbetrag als „Medium“, während CU209954 (186.120/1.923.802; ~0,097) mit 643.448 Investmentbetrag und CU314145 (429.061/1.259.260; ~0,341) mit 523.492 beide als „High“ eingestuft werden. Insgesamt deutet das darauf hin, dass die Einstufung stark vom Verhältnis Investmentbetrag zu Gesamtvermögen abhängt, während die Liquiditätsquote zusätzlich die kurzfristige Finanzflexibilität sichtbar macht.",
  "explanation": "Returns one row per customer with CU-format customer_id, liquid assets, total assets, a liquidity ratio (liqassets/total_assets), monthly income, investment amount, and a business-friendly investment potential label based on investment amount as a share of total assets.",
  "error": null
}