{
  "question": "I want to analyze customer financial standing. Please show the customer identifier, each customer's financial metrics.",
  "ambiguity_check": {
    "is_ambiguous": true,
    "reason": "Die Anfrage ist zu allgemein: „customer identifier“ ist im Schema nicht eindeutig (clientref vs. coreregistry vs. appref), und „financial metrics“ ist nicht spezifiziert (es gibt viele mögliche Kennzahlen/Indizes im Domain-Wissen sowie Rohfelder). Ohne Auswahl der gewünschten Metriken und ggf. des Zeitbezugs (mehrere core_record-Einträge pro Kunde möglich über timemark/scoredate) lässt sich keine sichere, korrekte SQL-Abfrage formulieren.",
    "questions": [
      "Welchen Kunden-Identifier soll ich ausgeben: core_record.clientref (Kunde), core_record.coreregistry (Record-ID) oder appref (Antrag)?",
      "Welche „financial metrics“ sollen enthalten sein (z.B. DTI/debincratio, CUR/credutil, Net Worth/networth, CLV/custlifeval, CHS/FSI/CES/AHI oder eine konkrete Liste)?"
    ]
  },
  "generated_sql": "SELECT\n  cr.coreregistry AS customer_id,\n  cr.scoredate,\n  ei.mthincome,\n  ei.annlincome,\n  ei.debincratio AS dti,\n  ea.liqassets,\n  ea.savamount,\n  ea.investamt,\n  ea.totassets,\n  ea.totliabs,\n  (ea.totassets - ea.totliabs) AS net_worth,\n  cah.credutil AS cur,\n  cc.credscore,\n  cc.risklev,\n  cc.delinqcount,\n  cc.latepaycount\nFROM core_record cr\nJOIN employment_and_income ei ON cr.coreregistry = ei.emplcoreref\nJOIN expenses_and_assets ea ON ei.emplcoreref = ea.expemplref\nJOIN bank_and_transactions bt ON ea.expemplref = bt.bankexpref\nJOIN credit_and_compliance cc ON bt.bankexpref = cc.compbankref\nJOIN credit_accounts_and_history cah ON cc.compbankref = cah.histcompref\nORDER BY cr.coreregistry",
  "validation": {
    "is_valid": true,
    "errors": [],
    "severity": "low",
    "suggestions": [
      "JOIN-Kette entspricht den definierten FOREIGN KEY-Beziehungen; keine Änderung nötig.",
      "Optional: Wenn Datensätze in Folgetabellen fehlen können, LEFT JOIN statt JOIN verwenden, um Kunden nicht auszuschließen.",
      "Optional: ORDER BY cr.coreregistry ist ok; falls Performance relevant ist, Indexe auf den FK/PK-Spalten prüfen (coreregistry, emplcoreref, expemplref, bankexpref, compbankref, histcompref)."
    ]
  },
  "results": [
    {
      "customer_id": "CS100439",
      "scoredate": "2025-02-19",
      "mthincome": 26938.33,
      "annlincome": 323260.0,
      "dti": 0.315,
      "liqassets": 403747.0,
      "savamount": 11833.0,
      "investamt": 190078.0,
      "totassets": 451012.0,
      "totliabs": 784775.0,
      "net_worth": -333763.0,
      "cur": 0.22,
      "credscore": 508,
      "risklev": "Low",
      "delinqcount": 9,
      "latepaycount": 12
    },
    {
      "customer_id": "CS100596",
      "scoredate": "2025-02-19",
      "mthincome": 11967.0,
      "annlincome": 143604.0,
      "dti": 0.398,
      "liqassets": 15960.0,
      "savamount": 239927.0,
      "investamt": 582595.0,
      "totassets": 1336658.0,
      "totliabs": 522748.0,
      "net_worth": 813910.0,
      "cur": 0.408,
      "credscore": 501,
      "risklev": "Low",
      "delinqcount": 5,
      "latepaycount": 12
    },
    {
      "customer_id": "CS100625",
      "scoredate": "2025-02-19",
      "mthincome": 33004.17,
      "annlincome": 396050.0,
      "dti": 0.547,
      "liqassets": 377201.0,
      "savamount": 150783.0,
      "investamt": 725035.0,
      "totassets": 318459.0,
      "totliabs": 778174.0,
      "net_worth": -459715.0,
      "cur": 0.153,
      "credscore": 795,
      "risklev": "Medium",
      "delinqcount": 1,
      "latepaycount": 8
    },
    {
      "customer_id": "CS101227",
      "scoredate": "2025-02-19",
      "mthincome": 23451.58,
      "annlincome": 281419.0,
      "dti": 0.36,
      "liqassets": 95326.0,
      "savamount": 301803.0,
      "investamt": 857629.0,
      "totassets": 1303085.0,
      "totliabs": 261451.0,
      "net_worth": 1041634.0,
      "cur": 0.361,
      "credscore": 648,
      "risklev": "High",
      "delinqcount": 1,
      "latepaycount": 10
    },
    {
      "customer_id": "CS101678",
      "scoredate": "2025-02-19",
      "mthincome": 29689.25,
      "annlincome": 356271.0,
      "dti": 0.297,
      "liqassets": 409143.0,
      "savamount": 193516.0,
      "investamt": 628463.0,
      "totassets": 937719.0,
      "totliabs": 943829.0,
      "net_worth": -6110.0,
      "cur": 0.597,
      "credscore": 351,
      "risklev": "High",
      "delinqcount": 1,
      "latepaycount": 8
    },
    {
      "customer_id": "CS103479",
      "scoredate": "2025-02-19",
      "mthincome": 29159.83,
      "annlincome": 349918.0,
      "dti": 0.396,
      "liqassets": 383813.0,
      "savamount": 215592.0,
      "investamt": 572063.0,
      "totassets": 115382.0,
      "totliabs": 701017.0,
      "net_worth": -585635.0,
      "cur": 0.87,
      "credscore": 580,
      "risklev": "Medium",
      "delinqcount": 6,
      "latepaycount": 18
    },
    {
      "customer_id": "CS104169",
      "scoredate": "2025-02-19",
      "mthincome": 32150.83,
      "annlincome": 385810.0,
      "dti": 0.249,
      "liqassets": 187825.0,
      "savamount": 470406.0,
      "investamt": 814836.0,
      "totassets": 1983531.0,
      "totliabs": 130828.0,
      "net_worth": 1852703.0,
      "cur": 0.995,
      "credscore": 824,
      "risklev": "Medium",
      "delinqcount": 8,
      "latepaycount": 20
    },
    {
      "customer_id": "CS104621",
      "scoredate": "2025-02-19",
      "mthincome": 30247.25,
      "annlincome": 362967.0,
      "dti": 0.506,
      "liqassets": 148561.0,
      "savamount": 315202.0,
      "investamt": 631427.0,
      "totassets": 1910484.0,
      "totliabs": 158765.0,
      "net_worth": 1751719.0,
      "cur": 0.593,
      "credscore": 592,
      "risklev": "Very High",
      "delinqcount": 10,
      "latepaycount": 19
    },
    {
      "customer_id": "CS104627",
      "scoredate": "2025-02-19",
      "mthincome": 23095.58,
      "annlincome": 277147.0,
      "dti": 0.066,
      "liqassets": 95281.0,
      "savamount": 119225.0,
      "investamt": 668922.0,
      "totassets": 1778371.0,
      "totliabs": 223824.0,
      "net_worth": 1554547.0,
      "cur": 0.934,
      "credscore": 347,
      "risklev": "High",
      "delinqcount": 0,
      "latepaycount": 14
    },
    {
      "customer_id": "CS106874",
      "scoredate": "2025-02-19",
      "mthincome": 39597.75,
      "annlincome": 475173.0,
      "dti": 0.066,
      "liqassets": 429643.0,
      "savamount": 36941.0,
      "investamt": 420805.0,
      "totassets": 1469407.0,
      "totliabs": 374340.0,
      "net_worth": 1095067.0,
      "cur": 0.761,
      "credscore": 457,
      "risklev": "Very High",
      "delinqcount": 10,
      "latepaycount": 8
    },
    {
      "customer_id": "CS108094",
      "scoredate": "2025-02-19",
      "mthincome": 35149.42,
      "annlincome": 421793.0,
      "dti": 0.327,
      "liqassets": 441709.0,
      "savamount": 130259.0,
      "investamt": 639693.0,
      "totassets": 482323.0,
      "totliabs": 343691.0,
      "net_worth": 138632.0,
      "cur": 0.887,
      "credscore": 622,
      "risklev": "Low",
      "delinqcount": 10,
      "latepaycount": 1
    },
    {
      "customer_id": "CS108475",
      "scoredate": "2025-02-19",
      "mthincome": 12420.33,
      "annlincome": 149044.0,
      "dti": 0.195,
      "liqassets": 410970.0,
      "savamount": 217175.0,
      "investamt": 52496.0,
      "totassets": 564544.0,
      "totliabs": 178053.0,
      "net_worth": 386491.0,
      "cur": 0.197,
      "credscore": 742,
      "risklev": "Very High",
      "delinqcount": 10,
      "latepaycount": 8
    },
    {
      "customer_id": "CS109017",
      "scoredate": "2025-02-19",
      "mthincome": 36108.25,
      "annlincome": 433299.0,
      "dti": 0.165,
      "liqassets": 16272.0,
      "savamount": 217455.0,
      "investamt": 49036.0,
      "totassets": 756255.0,
      "totliabs": 771531.0,
      "net_worth": -15276.0,
      "cur": 0.384,
      "credscore": 342,
      "risklev": "Very High",
      "delinqcount": 6,
      "latepaycount": 5
    },
    {
      "customer_id": "CS114324",
      "scoredate": "2025-02-19",
      "mthincome": 17585.58,
      "annlincome": 211027.0,
      "dti": 0.544,
      "liqassets": 193660.0,
      "savamount": 466308.0,
      "investamt": 947824.0,
      "totassets": 98434.0,
      "totliabs": 397075.0,
      "net_worth": -298641.0,
      "cur": 0.759,
      "credscore": 783,
      "risklev": "Medium",
      "delinqcount": 5,
      "latepaycount": 1
    },
    {
      "customer_id": "CS114708",
      "scoredate": "2025-02-19",
      "mthincome": 20483.67,
      "annlincome": 245804.0,
      "dti": 0.237,
      "liqassets": 43184.0,
      "savamount": 441017.0,
      "investamt": 707710.0,
      "totassets": 906078.0,
      "totliabs": 669762.0,
      "net_worth": 236316.0,
      "cur": 0.097,
      "credscore": 380,
      "risklev": "Very High",
      "delinqcount": 6,
      "latepaycount": 5
    },
    {
      "customer_id": "CS115119",
      "scoredate": "2025-02-19",
      "mthincome": 32760.42,
      "annlincome": 393125.0,
      "dti": 0.48,
      "liqassets": 317992.0,
      "savamount": 29963.0,
      "investamt": 490683.0,
      "totassets": 124477.0,
      "totliabs": 775471.0,
      "net_worth": -650994.0,
      "cur": 0.822,
      "credscore": 477,
      "risklev": "Very High",
      "delinqcount": 0,
      "latepaycount": 9
    },
    {
      "customer_id": "CS115562",
      "scoredate": "2025-02-19",
      "mthincome": 9614.83,
      "annlincome": 115378.0,
      "dti": 0.418,
      "liqassets": 354991.0,
      "savamount": 92329.0,
      "investamt": 868274.0,
      "totassets": 1444127.0,
      "totliabs": 18493.0,
      "net_worth": 1425634.0,
      "cur": 0.565,
      "credscore": 602,
      "risklev": "Low",
      "delinqcount": 5,
      "latepaycount": 15
    },
    {
      "customer_id": "CS116892",
      "scoredate": "2025-02-19",
      "mthincome": 21083.25,
      "annlincome": 252999.0,
      "dti": 0.535,
      "liqassets": 467799.0,
      "savamount": 85291.0,
      "investamt": 221546.0,
      "totassets": 457891.0,
      "totliabs": 635669.0,
      "net_worth": -177778.0,
      "cur": 0.485,
      "credscore": 823,
      "risklev": "Medium",
      "delinqcount": 0,
      "latepaycount": 3
    },
    {
      "customer_id": "CS117703",
      "scoredate": "2025-02-19",
      "mthincome": 39611.08,
      "annlincome": 475333.0,
      "dti": 0.039,
      "liqassets": 25829.0,
      "savamount": 46479.0,
      "investamt": 743933.0,
      "totassets": 1100664.0,
      "totliabs": 537375.0,
      "net_worth": 563289.0,
      "cur": 0.955,
      "credscore": 628,
      "risklev": "Very High",
      "delinqcount": 6,
      "latepaycount": 13
    },
    {
      "customer_id": "CS117909",
      "scoredate": "2025-02-19",
      "mthincome": 11110.17,
      "annlincome": 133322.0,
      "dti": 0.48,
      "liqassets": 25844.0,
      "savamount": 411027.0,
      "investamt": 966140.0,
      "totassets": 355130.0,
      "totliabs": 107499.0,
      "net_worth": 247631.0,
      "cur": 0.019,
      "credscore": 393,
      "risklev": "Very High",
      "delinqcount": 6,
      "latepaycount": 15
    },
    {
      "customer_id": "CS118101",
      "scoredate": "2025-02-19",
      "mthincome": 26003.33,
      "annlincome": 312040.0,
      "dti": 0.219,
      "liqassets": 331611.0,
      "savamount": 349048.0,
      "investamt": 164778.0,
      "totassets": 1025962.0,
      "totliabs": 161940.0,
      "net_worth": 864022.0,
      "cur": 0.333,
      "credscore": 424,
      "risklev": "High",
      "delinqcount": 0,
      "latepaycount": 16
    },
    {
      "customer_id": "CS118800",
      "scoredate": "2025-02-19",
      "mthincome": 32533.33,
      "annlincome": 390400.0,
      "dti": 0.419,
      "liqassets": 95099.0,
      "savamount": 352779.0,
      "investamt": 572189.0,
      "totassets": 767380.0,
      "totliabs": 581239.0,
      "net_worth": 186141.0,
      "cur": 0.885,
      "credscore": 520,
      "risklev": "Very High",
      "delinqcount": 2,
      "latepaycount": 14
    },
    {
      "customer_id": "CS118849",
      "scoredate": "2025-02-19",
      "mthincome": 31478.17,
      "annlincome": 377738.0,
      "dti": 0.512,
      "liqassets": 155839.0,
      "savamount": 102497.0,
      "investamt": 106290.0,
      "totassets": 803542.0,
      "totliabs": 365628.0,
      "net_worth": 437914.0,
      "cur": 0.393,
      "credscore": 367,
      "risklev": "Very High",
      "delinqcount": 2,
      "latepaycount": 17
    },
    {
      "customer_id": "CS119313",
      "scoredate": "2025-02-19",
      "mthincome": 36516.58,
      "annlincome": 438199.0,
      "dti": 0.51,
      "liqassets": 46662.0,
      "savamount": 461610.0,
      "investamt": 924422.0,
      "totassets": 1892188.0,
      "totliabs": 944219.0,
      "net_worth": 947969.0,
      "cur": 0.433,
      "credscore": 846,
      "risklev": "High",
      "delinqcount": 5,
      "latepaycount": 8
    },
    {
      "customer_id": "CS123662",
      "scoredate": "2025-02-19",
      "mthincome": 16433.0,
      "annlincome": 197196.0,
      "dti": 0.289,
      "liqassets": 351084.0,
      "savamount": 321845.0,
      "investamt": 196517.0,
      "totassets": 1339683.0,
      "totliabs": 842083.0,
      "net_worth": 497600.0,
      "cur": 0.986,
      "credscore": 363,
      "risklev": "Medium",
      "delinqcount": 2,
      "latepaycount": 8
    },
    {
      "customer_id": "CS124655",
      "scoredate": "2025-02-19",
      "mthincome": 40943.17,
      "annlincome": 491318.0,
      "dti": 0.085,
      "liqassets": 154063.0,
      "savamount": 177842.0,
      "investamt": 105040.0,
      "totassets": 997451.0,
      "totliabs": 595186.0,
      "net_worth": 402265.0,
      "cur": 0.448,
      "credscore": 461,
      "risklev": "Low",
      "delinqcount": 3,
      "latepaycount": 15
    },
    {
      "customer_id": "CS127224",
      "scoredate": "2025-02-19",
      "mthincome": 9764.33,
      "annlincome": 117172.0,
      "dti": 0.593,
      "liqassets": 304825.0,
      "savamount": 129331.0,
      "investamt": 158012.0,
      "totassets": 1009911.0,
      "totliabs": 253210.0,
      "net_worth": 756701.0,
      "cur": 0.304,
      "credscore": 600,
      "risklev": "Very High",
      "delinqcount": 2,
      "latepaycount": 11
    },
    {
      "customer_id": "CS127497",
      "scoredate": "2025-02-19",
      "mthincome": 26979.58,
      "annlincome": 323755.0,
      "dti": 0.447,
      "liqassets": 211166.0,
      "savamount": 61825.0,
      "investamt": 949242.0,
      "totassets": 616072.0,
      "totliabs": 50114.0,
      "net_worth": 565958.0,
      "cur": 0.024,
      "credscore": 832,
      "risklev": "Low",
      "delinqcount": 9,
      "latepaycount": 2
    },
    {
      "customer_id": "CS127904",
      "scoredate": "2025-02-19",
      "mthincome": 35774.92,
      "annlincome": 429299.0,
      "dti": 0.567,
      "liqassets": 734.0,
      "savamount": 325183.0,
      "investamt": 401756.0,
      "totassets": 475065.0,
      "totliabs": 795136.0,
      "net_worth": -320071.0,
      "cur": 0.787,
      "credscore": 711,
      "risklev": "Medium",
      "delinqcount": 2,
      "latepaycount": 14
    },
    {
      "customer_id": "CS128627",
      "scoredate": "2025-02-19",
      "mthincome": 41108.25,
      "annlincome": 493299.0,
      "dti": 0.053,
      "liqassets": 272051.0,
      "savamount": 301349.0,
      "investamt": 519859.0,
      "totassets": 1165489.0,
      "totliabs": 466615.0,
      "net_worth": 698874.0,
      "cur": 0.167,
      "credscore": 393,
      "risklev": "Very High",
      "delinqcount": 0,
      "latepaycount": 17
    },
    {
      "customer_id": "CS133642",
      "scoredate": "2025-02-19",
      "mthincome": 5978.25,
      "annlincome": 71739.0,
      "dti": 0.314,
      "liqassets": 102397.0,
      "savamount": 338474.0,
      "investamt": 652746.0,
      "totassets": 962186.0,
      "totliabs": 54721.0,
      "net_worth": 907465.0,
      "cur": 0.483,
      "credscore": 704,
      "risklev": "High",
      "delinqcount": 8,
      "latepaycount": 9
    },
    {
      "customer_id": "CS134108",
      "scoredate": "2025-02-19",
      "mthincome": 34078.75,
      "annlincome": 408945.0,
      "dti": 0.506,
      "liqassets": 470412.0,
      "savamount": 130377.0,
      "investamt": 241715.0,
      "totassets": 939583.0,
      "totliabs": 185066.0,
      "net_worth": 754517.0,
      "cur": 0.151,
      "credscore": 755,
      "risklev": "Low",
      "delinqcount": 10,
      "latepaycount": 2
    },
    {
      "customer_id": "CS135663",
      "scoredate": "2025-02-19",
      "mthincome": 37477.83,
      "annlincome": 449734.0,
      "dti": 0.558,
      "liqassets": 302301.0,
      "savamount": 413331.0,
      "investamt": 375112.0,
      "totassets": 558035.0,
      "totliabs": 28872.0,
      "net_worth": 529163.0,
      "cur": 0.313,
      "credscore": 841,
      "risklev": "Very High",
      "delinqcount": 9,
      "latepaycount": 19
    },
    {
      "customer_id": "CS135936",
      "scoredate": "2025-02-19",
      "mthincome": 7941.5,
      "annlincome": 95298.0,
      "dti": 0.499,
      "liqassets": 379369.0,
      "savamount": 178193.0,
      "investamt": 587853.0,
      "totassets": 1458307.0,
      "totliabs": 211629.0,
      "net_worth": 1246678.0,
      "cur": 0.462,
      "credscore": 756,
      "risklev": "Very High",
      "delinqcount": 4,
      "latepaycount": 18
    },
    {
      "customer_id": "CS137159",
      "scoredate": "2025-02-19",
      "mthincome": 33845.58,
      "annlincome": 406147.0,
      "dti": 0.419,
      "liqassets": 240243.0,
      "savamount": 56659.0,
      "investamt": 843650.0,
      "totassets": 556576.0,
      "totliabs": 80667.0,
      "net_worth": 475909.0,
      "cur": 0.848,
      "credscore": 673,
      "risklev": "High",
      "delinqcount": 8,
      "latepaycount": 12
    },
    {
      "customer_id": "CS137169",
      "scoredate": "2025-02-19",
      "mthincome": 7731.33,
      "annlincome": 92776.0,
      "dti": 0.266,
      "liqassets": 388261.0,
      "savamount": 121737.0,
      "investamt": 667362.0,
      "totassets": 1611887.0,
      "totliabs": 557675.0,
      "net_worth": 1054212.0,
      "cur": 0.25,
      "credscore": 530,
      "risklev": "High",
      "delinqcount": 10,
      "latepaycount": 7
    },
    {
      "customer_id": "CS137278",
      "scoredate": "2025-02-19",
      "mthincome": 33176.92,
      "annlincome": 398123.0,
      "dti": 0.207,
      "liqassets": 309350.0,
      "savamount": 334375.0,
      "investamt": 838506.0,
      "totassets": 606118.0,
      "totliabs": 85684.0,
      "net_worth": 520434.0,
      "cur": 0.438,
      "credscore": 429,
      "risklev": "High",
      "delinqcount": 3,
      "latepaycount": 3
    },
    {
      "customer_id": "CS138232",
      "scoredate": "2025-02-19",
      "mthincome": 30428.17,
      "annlincome": 365138.0,
      "dti": 0.117,
      "liqassets": 303446.0,
      "savamount": 321206.0,
      "investamt": 444814.0,
      "totassets": 1471782.0,
      "totliabs": 966170.0,
      "net_worth": 505612.0,
      "cur": 0.369,
      "credscore": 490,
      "risklev": "Medium",
      "delinqcount": 1,
      "latepaycount": 17
    },
    {
      "customer_id": "CS138931",
      "scoredate": "2025-02-19",
      "mthincome": 39981.25,
      "annlincome": 479775.0,
      "dti": 0.245,
      "liqassets": 257810.0,
      "savamount": 175713.0,
      "investamt": 182083.0,
      "totassets": 590326.0,
      "totliabs": 56469.0,
      "net_worth": 533857.0,
      "cur": 0.916,
      "credscore": 748,
      "risklev": "Medium",
      "delinqcount": 8,
      "latepaycount": 1
    },
    {
      "customer_id": "CS139109",
      "scoredate": "2025-02-19",
      "mthincome": 25095.33,
      "annlincome": 301144.0,
      "dti": 0.393,
      "liqassets": 144612.0,
      "savamount": 257906.0,
      "investamt": 475017.0,
      "totassets": 1522932.0,
      "totliabs": 195528.0,
      "net_worth": 1327404.0,
      "cur": 0.2,
      "credscore": 336,
      "risklev": "Low",
      "delinqcount": 10,
      "latepaycount": 7
    },
    {
      "customer_id": "CS139679",
      "scoredate": "2025-02-19",
      "mthincome": 3175.75,
      "annlincome": 38109.0,
      "dti": 0.462,
      "liqassets": 443607.0,
      "savamount": 321455.0,
      "investamt": 992799.0,
      "totassets": 1801849.0,
      "totliabs": 471791.0,
      "net_worth": 1330058.0,
      "cur": 0.568,
      "credscore": 336,
      "risklev": "Very High",
      "delinqcount": 9,
      "latepaycount": 20
    },
    {
      "customer_id": "CS139849",
      "scoredate": "2025-02-19",
      "mthincome": 8724.17,
      "annlincome": 104690.0,
      "dti": 0.076,
      "liqassets": 24171.0,
      "savamount": 366277.0,
      "investamt": 160423.0,
      "totassets": 1831701.0,
      "totliabs": 651829.0,
      "net_worth": 1179872.0,
      "cur": 0.983,
      "credscore": 594,
      "risklev": "Low",
      "delinqcount": 9,
      "latepaycount": 9
    },
    {
      "customer_id": "CS140564",
      "scoredate": "2025-02-19",
      "mthincome": 4971.25,
      "annlincome": 59655.0,
      "dti": 0.459,
      "liqassets": 457733.0,
      "savamount": 168987.0,
      "investamt": 86437.0,
      "totassets": 1619713.0,
      "totliabs": 317559.0,
      "net_worth": 1302154.0,
      "cur": 0.24,
      "credscore": 746,
      "risklev": "High",
      "delinqcount": 8,
      "latepaycount": 9
    },
    {
      "customer_id": "CS140967",
      "scoredate": "2025-02-19",
      "mthincome": 11364.92,
      "annlincome": 136379.0,
      "dti": 0.377,
      "liqassets": 150087.0,
      "savamount": 237162.0,
      "investamt": 156735.0,
      "totassets": 1759080.0,
      "totliabs": 889182.0,
      "net_worth": 869898.0,
      "cur": 0.922,
      "credscore": 779,
      "risklev": "Medium",
      "delinqcount": 5,
      "latepaycount": 16
    },
    {
      "customer_id": "CS141088",
      "scoredate": "2025-02-19",
      "mthincome": 19316.83,
      "annlincome": 231802.0,
      "dti": 0.441,
      "liqassets": 271516.0,
      "savamount": 47046.0,
      "investamt": 129627.0,
      "totassets": 869943.0,
      "totliabs": 164439.0,
      "net_worth": 705504.0,
      "cur": 0.951,
      "credscore": 388,
      "risklev": "Medium",
      "delinqcount": 2,
      "latepaycount": 8
    },
    {
      "customer_id": "CS141623",
      "scoredate": "2025-02-19",
      "mthincome": 35344.33,
      "annlincome": 424132.0,
      "dti": 0.317,
      "liqassets": 442963.0,
      "savamount": 390368.0,
      "investamt": 314174.0,
      "totassets": 1563634.0,
      "totliabs": 293089.0,
      "net_worth": 1270545.0,
      "cur": 0.46,
      "credscore": 542,
      "risklev": "Low",
      "delinqcount": 9,
      "latepaycount": 16
    },
    {
      "customer_id": "CS143502",
      "scoredate": "2025-02-19",
      "mthincome": 28336.17,
      "annlincome": 340034.0,
      "dti": 0.33,
      "liqassets": 214425.0,
      "savamount": 278938.0,
      "investamt": 306398.0,
      "totassets": 1322524.0,
      "totliabs": 455498.0,
      "net_worth": 867026.0,
      "cur": 0.254,
      "credscore": 847,
      "risklev": "Very High",
      "delinqcount": 8,
      "latepaycount": 8
    },
    {
      "customer_id": "CS144498",
      "scoredate": "2025-02-19",
      "mthincome": 17699.58,
      "annlincome": 212395.0,
      "dti": 0.415,
      "liqassets": 366378.0,
      "savamount": 278153.0,
      "investamt": 670760.0,
      "totassets": 1392080.0,
      "totliabs": 647720.0,
      "net_worth": 744360.0,
      "cur": 0.696,
      "credscore": 611,
      "risklev": "Medium",
      "delinqcount": 8,
      "latepaycount": 5
    },
    {
      "customer_id": "CS145015",
      "scoredate": "2025-02-19",
      "mthincome": 20725.42,
      "annlincome": 248705.0,
      "dti": 0.575,
      "liqassets": 82367.0,
      "savamount": 85720.0,
      "investamt": 27539.0,
      "totassets": 1090506.0,
      "totliabs": 549215.0,
      "net_worth": 541291.0,
      "cur": 0.914,
      "credscore": 721,
      "risklev": "Very High",
      "delinqcount": 2,
      "latepaycount": 0
    },
    {
      "customer_id": "CS145462",
      "scoredate": "2025-02-19",
      "mthincome": 38797.83,
      "annlincome": 465574.0,
      "dti": 0.048,
      "liqassets": 282201.0,
      "savamount": 391710.0,
      "investamt": 577186.0,
      "totassets": 596202.0,
      "totliabs": 436490.0,
      "net_worth": 159712.0,
      "cur": 0.435,
      "credscore": 716,
      "risklev": "Very High",
      "delinqcount": 1,
      "latepaycount": 3
    }
  ],
  "row_count": 50,
  "query_id": "9c15c1cb1b1748e985365dcdee5dfc3f",
  "page": 1,
  "page_size": 50,
  "total_pages": 20,
  "total_rows": 1000,
  "has_next_page": true,
  "has_previous_page": false,
  "notice": "Seite 1 von 20 (50 von 1000 Zeilen). Weitere Seiten verfügbar.  Hinweis: Ambiguity: Die Anfrage ist zu allgemein: „customer identifier“ ist im Schema nicht eindeutig (clientref vs. coreregistry vs. appref), und „financial metrics“ ist nicht spezifiziert (es gibt viele mögliche Kennzahlen/Indizes im Domain-Wissen sowie Rohfelder). Ohne Auswahl der gewünschten Metriken und ggf. des Zeitbezugs (mehrere core_record-Einträge pro Kunde möglich über timemark/scoredate) lässt sich keine sichere, korrekte SQL-Abfrage formulieren.. Klärungsfragen: Welchen Kunden-Identifier soll ich ausgeben: core_record.clientref (Kunde), core_record.coreregistry (Record-ID) oder appref (Antrag)?, Welche „financial metrics“ sollen enthalten sein (z.B. DTI/debincratio, CUR/credutil, Net Worth/networth, CLV/custlifeval, CHS/FSI/CES/AHI oder eine konkrete Liste)?",
  "summary": "Die Abfrage liefert 1.000 Kundenzeilen (Seite 1 zeigt 50) mit Einkommen, DTI, Vermögenswerten/Verbindlichkeiten, Net Worth sowie Kreditkennzahlen (CUR, Score, Risk Level, Delinquencies/Late Pays). In den ersten Ergebnissen fällt auf, dass CS100596 trotz moderatem DTI (0,398) und niedrigem Score (501, Risk “Low”) einen hohen positiven Net Worth von 813.910 (Assets 1.336.658 vs. Liabs 522.748) hat, während CS100439 und CS100625 trotz hoher Einkommen einen negativen Net Worth aufweisen (-333.763 bzw. -459.715) und zugleich erhöhte Zahlungsauffälligkeiten zeigen (z. B. CS100439: 9 Delinquencies, 12 Late Pays). Insgesamt deutet das darauf hin, dass hohe Einkommen nicht automatisch mit positiver Vermögenslage korrelieren und dass Kreditverhalten/Verbindlichkeiten die finanzielle Gesamtposition stark beeinflussen.",
  "explanation": "Returns one row per customer (CS-format customer_id) with key financial standing metrics: income, DTI, liquid assets/savings/investments, total assets & liabilities, computed net worth, credit utilization, and basic credit risk/payment-issue indicators. Uses the full required join chain and avoids aggregation.",
  "error": null
}